{
	"id": "8c75d428-4ea1-482f-a501-4c3543f6d9a1",
	"name": "ReqRes Env",
	"values": [
		{
			"key": "baseURL",
			"value": "https://reqres.in",
			"type": "default",
			"enabled": true
		}
	],
	"_postman_variable_scope": "environment",
	"_postman_exported_at": "2023-04-04T21:02:53.535Z",
	"_postman_exported_using": "Postman/10.12.10"
}